{
    "name": "EmailManager",
    "alias": "emailmanager",
    "description": "",
    "keywords": [],
    "priority": 0,
    "providers": [
        "Modules\\EmailManager\\Providers\\EmailManagerServiceProvider"
    ],
    "aliases": {},
    "files": [],
    "requires": []
}
